Chapter 4 경쟁위험(Competing Risks) | Survival Analysis
…
경쟁위험이 있는 경우 CIF

가상의 두경부암 환자 26명에게 모두 방사선 치료를 하였으며, 암에 의해 사망(status=1)하거나, 다른 원인에 의해 사망(status=2)하거나 생존(status=0) 하였다.

library(tidyverse)
time=c(0.7,3,4,9,6,6,6,9,10,10.8,17.1,20.3,1.5,2.8,3.8,4.7,7,10,10,11.2,
3.2,7.6,10,11,15,24.4)
status=c(rep(1,12),rep(2,8),rep(0,6))
df=tibble(time,status)
df

## # A tibble: 26 × 2
##     time status
##    <dbl>  <dbl>
##  1   0.7      1
##  2   3        1
##  3   4        1
##  4   9        1
##  5   6        1
##  6   6        1
##  7   6        1
##  8   9        1
##  9  10        1
## 10  10.8      1
## # ℹ 16 more rows
…
