Chapter 5 새로운 변수 생성 | Insurance Claims Data Analysis with R
…
이번 장에서는 새로운 변수를 어떻게 생성하는지 알아보자. 새로운 변수 생성 시 두 가지 경우를 생각해 볼 수 있다. 첫 번째는 기존에 존재하는 변수의 값을 바꾸는 것이고 두 번째는 완전히 새로운 변수를 생성하는 경우이다. 우선 기존에 존재하는 변수의 값을 바꾸는 여러 가지 형태를 알아보자. 사용법은 다음과 같다.

기존에 존재하는 변수 = 원하는 형태의 식

우선 t20 데이터셋에서 개인고유번호(rn_indi), 심결요양급여비용총액(ed_rc_tot_amt), 심결본인부담금(edc_sba), 심결보험자부담금(edc_insur_brdn_amt) 네 개의 변수만 남겨서 t20_new 데이터셋을 생성하자.

방법1

t20_new <- t20[c("rn_indi", "ed_rc_tot_amt", "edc_sba", "edc_insur_brdn_amt")]

names(t20_new) <- c("id","tcost","acost","bcost")

t20_new

## # A tibble: 135,524 x 4
##        id tcost acost bcost
##     <dbl> <dbl> <dbl> <dbl>
##  1 746491 10590  3000  7590
##  2 848340 10590  3000  7590
##  3 992522 10590  3000  7590
##  4 543044 10590  3000  7590
##  5 928716 10590  3000  7590
##  6 633585 10590  3000  7590
##  7 706339 10590  3000  7590
##  8 515572 10590  3000  7590
##  9  71582 10590  3000  7590
## 10 701404 10590  3000  7590
## # ... with 135,514 more rows

방법2

t20_new <- t20 %>% 
  select(rn_indi, ed_rc_tot_amt:edc_insur_brdn_amt) %>% 
  rename(id=rn_indi, tcost=ed_rc_tot_amt, acost=edc_sba, bcost=edc_insur_brdn_amt)

t20_new

## # A tibble: 135,524 x 4
##        id tcost acost bcost
##     <dbl> <dbl> <dbl> <dbl>
##  1 746491 10590  3000  7590
##  2 848340 10590  3000  7590
##  3 992522 10590  3000  7590
##  4 543044 10590  3000  7590
##  5 928716 10590  3000  7590
##  6 633585 10590  3000  7590
##  7 706339 10590  3000  7590
##  8 515572 10590  3000  7590
##  9  71582 10590  3000  7590
## 10 701404 10590  3000  7590
## # ... with 135,514 more rows

방법3

t20_new <- t20 %>% 
  select(id=rn_indi, tcost=ed_rc_tot_amt, acost=edc_sba, bcost=edc_insur_brdn_amt)

t20_new

## # A tibble: 135,524 x 4
##        id tcost acost bcost
##     <dbl> <dbl> <dbl> <dbl>
##  1 746491 10590  3000  7590
##  2 848340 10590  3000  7590
##  3 992522 10590  3000  7590
##  4 543044 10590  3000  7590
##  5 928716 10590  3000  7590
##  6 633585 10590  3000  7590
##  7 706339 10590  3000  7590
##  8 515572 10590  3000  7590
##  9  71582 10590  3000  7590
## 10 701404 10590  3000  7590
## # ... with 135,514 more rows

여기서 ed_rc_tot_amt : edc_insur_brdn_amt의 의미는 데이터셋 상의 변수 순서로 봤을 때 ed_rc_tot_amt부터 edc_insur_brdn_amt까지 모든 변수를 의미한다. 이때 편의를 위해 남겨진 변수의 이름을 id, tcost, acost, bcost로 변경했으며, tcost는 acost와 bcost의 합과 같은 관계를 지닌다.

방법1

t20_new <- t20 %>% 
  select(id=rn_indi, tcost=ed_rc_tot_amt, acost=edc_sba, bcost=edc_insur_brdn_amt)

t20_new$tcost <- t20_new$tcost+1000
t20_new$acost <- t20_new$acost+t20_new$bcost+1000

t20_new

## # A tibble: 135,524 x 4
##        id tcost acost bcost
##     <dbl> <dbl> <dbl> <dbl>
##  1 746491 11590 11590  7590
##  2 848340 11590 11590  7590
##  3 992522 11590 11590  7590
##  4 543044 11590 11590  7590
##  5 928716 11590 11590  7590
##  6 633585 11590 11590  7590
##  7 706339 11590 11590  7590
##  8 515572 11590 11590  7590
##  9  71582 11590 11590  7590
## 10 701404 11590 11590  7590
## # ... with 135,514 more rows

방법2

t20_new <- t20 %>% 
  select(id=rn_indi, tcost=ed_rc_tot_amt, acost=edc_sba, bcost=edc_insur_brdn_amt)

t20_new <- t20_new %>% 
  mutate(tcost=tcost+1000, acost=acost+bcost+1000)

t20_new

## # A tibble: 135,524 x 4
##        id tcost acost bcost
##     <dbl> <dbl> <dbl> <dbl>
##  1 746491 11590 11590  7590
##  2 848340 11590 11590  7590
##  3 992522 11590 11590  7590
##  4 543044 11590 11590  7590
##  5 928716 11590 11590  7590
##  6 633585 11590 11590  7590
##  7 706339 11590 11590  7590
##  8 515572 11590 11590  7590
##  9  71582 11590 11590  7590
## 10 701404 11590 11590  7590
## # ... with 135,514 more rows

방법3

t20_new <- t20 %>% 
  select(id=rn_indi, tcost=ed_rc_tot_amt, acost=edc_sba, bcost=edc_insur_brdn_amt)

t20_new <- t20_new %>% 
  rowwise() %>% 
  mutate(tcost=sum(tcost,1000), acost=sum(acost,bcost,1000))

t20_new

## # A tibble: 135,524 x 4
## # Rowwise: 
##        id tcost acost bcost
##     <dbl> <dbl> <dbl> <dbl>
##  1 746491 11590 11590  7590
##  2 848340 11590 11590  7590
##  3 992522 11590 11590  7590
##  4 543044 11590 11590  7590
##  5 928716 11590 11590  7590
##  6 633585 11590 11590  7590
##  7 706339 11590 11590  7590
##  8 515572 11590 11590  7590
##  9  71582 11590 11590  7590
## 10 701404 11590 11590  7590
## # ... with 135,514 more rows
…
새로운 변수 = 원하는 형태의 식

우선 기본적인 사칙연산을 이용한 새로운 변수 생성 방법을 알아보자. 기존 변수의 값 바꾸기와 같이 t20 데이터셋에서 개인고유번호(rn_indi), 심결요양급여비용총액(ed_rc_tot_amt), 심결본인부담금(edc_sba), 심결보험자부담금(edc_insur_brdn_amt) 네 개의 변수만 남겨서 t20_new 데이터셋을 생성한다. 여기서 acost와 bcost를 합해서 새로운 변수 totalcost를 생성하고 acost와 bcost의 비율을 costratio 변수로 생성해보자.

방법1

t20_new <- t20 %>% 
  select(id=rn_indi, tcost=ed_rc_tot_amt, acost=edc_sba, bcost=edc_insur_brdn_amt)

t20_new$totalcost <- t20_new$acost+t20_new$bcost
t20_new$costratio <- t20_new$acost/t20_new$bcost

t20_new

## # A tibble: 135,524 x 6
##        id tcost acost bcost totalcost costratio
##     <dbl> <dbl> <dbl> <dbl>     <dbl>     <dbl>
##  1 746491 10590  3000  7590     10590     0.395
##  2 848340 10590  3000  7590     10590     0.395
##  3 992522 10590  3000  7590     10590     0.395
##  4 543044 10590  3000  7590     10590     0.395
##  5 928716 10590  3000  7590     10590     0.395
##  6 633585 10590  3000  7590     10590     0.395
##  7 706339 10590  3000  7590     10590     0.395
##  8 515572 10590  3000  7590     10590     0.395
##  9  71582 10590  3000  7590     10590     0.395
## 10 701404 10590  3000  7590     10590     0.395
## # ... with 135,514 more rows

방법2

t20_new <- t20 %>% 
  select(id=rn_indi, tcost=ed_rc_tot_amt, acost=edc_sba, bcost=edc_insur_brdn_amt)

t20_new <- t20_new %>% 
  mutate(totalcost=acost+bcost, costratio=acost/bcost)

t20_new

## # A tibble: 135,524 x 6
##        id tcost acost bcost totalcost costratio
##     <dbl> <dbl> <dbl> <dbl>     <dbl>     <dbl>
##  1 746491 10590  3000  7590     10590     0.395
##  2 848340 10590  3000  7590     10590     0.395
##  3 992522 10590  3000  7590     10590     0.395
##  4 543044 10590  3000  7590     10590     0.395
##  5 928716 10590  3000  7590     10590     0.395
##  6 633585 10590  3000  7590     10590     0.395
##  7 706339 10590  3000  7590     10590     0.395
##  8 515572 10590  3000  7590     10590     0.395
##  9  71582 10590  3000  7590     10590     0.395
## 10 701404 10590  3000  7590     10590     0.395
## # ... with 135,514 more rows
…
meancost = acost와 bcost의 평균

프로그램은 다음과 같다.

방법1

t20_new <- t20 %>% 
  select(id=rn_indi, tcost=ed_rc_tot_amt, acost=edc_sba, bcost=edc_insur_brdn_amt)

t20_new$totalcost <- rowSums(t20_new[c("acost","bcost")]) 
t20_new$meancost <- rowMeans(t20_new[c("acost","bcost")])

t20_new

## # A tibble: 135,524 x 6
##        id tcost acost bcost totalcost meancost
##     <dbl> <dbl> <dbl> <dbl>     <dbl>    <dbl>
##  1 746491 10590  3000  7590     10590     5295
##  2 848340 10590  3000  7590     10590     5295
##  3 992522 10590  3000  7590     10590     5295
##  4 543044 10590  3000  7590     10590     5295
##  5 928716 10590  3000  7590     10590     5295
##  6 633585 10590  3000  7590     10590     5295
##  7 706339 10590  3000  7590     10590     5295
##  8 515572 10590  3000  7590     10590     5295
##  9  71582 10590  3000  7590     10590     5295
## 10 701404 10590  3000  7590     10590     5295
## # ... with 135,514 more rows

방법2

t20_new <- t20 %>% 
  select(id=rn_indi, tcost=ed_rc_tot_amt, acost=edc_sba, bcost=edc_insur_brdn_amt)

t20_new <- t20_new %>% 
  rowwise() %>% 
  mutate(totalcost=sum(c(acost,bcost)), meancost=mean(c(acost,bcost)))

t20_new

## # A tibble: 135,524 x 6
## # Rowwise: 
##        id tcost acost bcost totalcost meancost
##     <dbl> <dbl> <dbl> <dbl>     <dbl>    <dbl>
##  1 746491 10590  3000  7590     10590     5295
##  2 848340 10590  3000  7590     10590     5295
##  3 992522 10590  3000  7590     10590     5295
##  4 543044 10590  3000  7590     10590     5295
##  5 928716 10590  3000  7590     10590     5295
##  6 633585 10590  3000  7590     10590     5295
##  7 706339 10590  3000  7590     10590     5295
##  8 515572 10590  3000  7590     10590     5295
##  9  71582 10590  3000  7590     10590     5295
## 10 701404 10590  3000  7590     10590     5295
## # ... with 135,514 more rows
…
