Chapter 11 사용자 정의 함수 | Insurance Claims Data Analysis with R
…
diseasex <- function(x, icd) {
  require(tidyverse)

  x1 <- x
  x1 <- x1 %>% 
    mutate(disease=ifelse(substr(sick_sym1,1,3) %in% icd | substr(sick_sym2,1,3) %in% icd ,1,0))
  
  x1 <- x1[c("rn_indi","rn_key","disease")]
  x1
}

diseasex(t20,'E11')

## # A tibble: 135,524 x 3
##    rn_indi rn_key        disease
##      <dbl> <chr>           <dbl>
##  1  746491 2002100382947       0
##  2  848340 2002070609412       0
##  3  992522 2002091020009       0
##  4  543044 2002090218816       0
##  5  928716 2002080203933       0
##  6  633585 2002050156181       0
##  7  706339 2002040696294       0
##  8  515572 2002070735314       0
##  9   71582 2002070205573       0
## 10  701404 2002070165758       0
## # ... with 135,514 more rows
…
cci <- ccif(t40[1:10000,], mcex_sick_sym, rn_indi)

cci2 <- cci %>% 
      group_by(rn_indi) %>% 
      summarise(di1=max(di1), di2=max(di2), di3=max(di3), di4=max(di4), di5=max(di5), di6=max(di6), di7=max(di7), di8=max(di8),
      di9=max(di9), di10=max(di10), di11=max(di11), di12=max(di12), di13=max(di13), di14=max(di14), di15=max(di15), di16=max(di16), di17=max(di17))

cci2 <- cci2 %>% 
  mutate(cci=(di6+di7+di11+di13)*1+(di2+di5+di9+di12+di14)*2+(di15+di17)*4+(di16)*6) %>% 
  select(rn_indi, cci)

cci2

## # A tibble: 700 x 2
##    rn_indi   cci
##      <dbl> <dbl>
##  1    2270     0
##  2    3690     0
##  3    4263     0
##  4    4664     0
##  5    5707     0
##  6    6374     0
##  7    7386     0
##  8    8830     0
##  9    9866     0
## 10   15559     0
## # ... with 690 more rows
