Chapter 6 조건문 | Insurance Claims Data Analysis with R
…
1. 새로운 데이터 셋 = 기존 데이터 셋[조건,]
2. 새로운 데이터 셋 = subset(기존 데이터셋, 조건)
3. 새로운 데이터 셋 = filter(기존 데이터셋, 조건)

하나 이상의 조건문을 나열할 수 있으며, 나열된 조건을 만족하는 개체들만으로 새로운 데이터셋을 구성한다. 이때 조건문은 개체의 선택에만 관여한다.

t20 데이터셋에서 주상병(sick_sym1) 코드를 첫 세자리만 추출하여 주상병이 제2형 당뇨(‘E11’)인 명세서만 추출하여 t20_if 데이터셋을 생성해보자. 프로그램은 다음과 같다.

방법1

t20_if <- t20[substr(t20$sick_sym1,1,3)=='E11',]

t20_if

## # A tibble: 2,708 x 22
##    rn_indi rn_key        rn_inst mdcare_strt_dt form_cd mcare_subj_cd sick_sym1
##      <dbl> <chr>           <dbl> <chr>          <chr>   <chr>         <chr>    
##  1  819628 2002100385297   99662 20021025       03      01            E11      
##  2  663811 2002090160999  108535 20020929       03      01            E11      
##  3  819628 2002090153862   99662 20020907       03      01            E11      
##  4  490204 2002040486087   36298 20020416       03      01            E11      
##  5  490204 2002020191323   36298 20020214       03      01            E11      
##  6  490204 2002030200247   36298 20020316       03      01            E11      
##  7  490204 2002050098890   36298 20020514       03      01            E11      
##  8  490204 2002070043518   36298 20020715       03      01            E11      
##  9  490204 2002100739596   36298 20021030       03      01            E11      
## 10  490204 2002080663820   36298 20020831       03      01            E11      
## # ... with 2,698 more rows, and 15 more variables: sick_sym2 <chr>,
## #   hsptz_path_type <chr>, ofij_type <chr>, oprtn_yn <chr>,
## #   mdcare_dd_cnt <dbl>, vshsp_dd_cnt <dbl>, tot_prsc_dd_cnt <dbl>,
## #   mcare_rslt_type <chr>, fst_hsptz_dt <chr>, edc_add_rt <dbl>,
## #   spcf_sym_type <chr>, ed_rc_tot_amt <dbl>, edc_sba <dbl>,
## #   edc_insur_brdn_amt <dbl>, std_yyyy <chr>

방법2

t20_if <- subset(t20,substr(sick_sym1,1,3)=='E11')

t20_if

## # A tibble: 2,708 x 22
##    rn_indi rn_key        rn_inst mdcare_strt_dt form_cd mcare_subj_cd sick_sym1
##      <dbl> <chr>           <dbl> <chr>          <chr>   <chr>         <chr>    
##  1  819628 2002100385297   99662 20021025       03      01            E11      
##  2  663811 2002090160999  108535 20020929       03      01            E11      
##  3  819628 2002090153862   99662 20020907       03      01            E11      
##  4  490204 2002040486087   36298 20020416       03      01            E11      
##  5  490204 2002020191323   36298 20020214       03      01            E11      
##  6  490204 2002030200247   36298 20020316       03      01            E11      
##  7  490204 2002050098890   36298 20020514       03      01            E11      
##  8  490204 2002070043518   36298 20020715       03      01            E11      
##  9  490204 2002100739596   36298 20021030       03      01            E11      
## 10  490204 2002080663820   36298 20020831       03      01            E11      
## # ... with 2,698 more rows, and 15 more variables: sick_sym2 <chr>,
## #   hsptz_path_type <chr>, ofij_type <chr>, oprtn_yn <chr>,
## #   mdcare_dd_cnt <dbl>, vshsp_dd_cnt <dbl>, tot_prsc_dd_cnt <dbl>,
## #   mcare_rslt_type <chr>, fst_hsptz_dt <chr>, edc_add_rt <dbl>,
## #   spcf_sym_type <chr>, ed_rc_tot_amt <dbl>, edc_sba <dbl>,
## #   edc_insur_brdn_amt <dbl>, std_yyyy <chr>

방법3

t20_if <- t20 %>% filter(substr(sick_sym1,1,3)=='E11')

t20_if

## # A tibble: 2,708 x 22
##    rn_indi rn_key        rn_inst mdcare_strt_dt form_cd mcare_subj_cd sick_sym1
##      <dbl> <chr>           <dbl> <chr>          <chr>   <chr>         <chr>    
##  1  819628 2002100385297   99662 20021025       03      01            E11      
##  2  663811 2002090160999  108535 20020929       03      01            E11      
##  3  819628 2002090153862   99662 20020907       03      01            E11      
##  4  490204 2002040486087   36298 20020416       03      01            E11      
##  5  490204 2002020191323   36298 20020214       03      01            E11      
##  6  490204 2002030200247   36298 20020316       03      01            E11      
##  7  490204 2002050098890   36298 20020514       03      01            E11      
##  8  490204 2002070043518   36298 20020715       03      01            E11      
##  9  490204 2002100739596   36298 20021030       03      01            E11      
## 10  490204 2002080663820   36298 20020831       03      01            E11      
## # ... with 2,698 more rows, and 15 more variables: sick_sym2 <chr>,
## #   hsptz_path_type <chr>, ofij_type <chr>, oprtn_yn <chr>,
## #   mdcare_dd_cnt <dbl>, vshsp_dd_cnt <dbl>, tot_prsc_dd_cnt <dbl>,
## #   mcare_rslt_type <chr>, fst_hsptz_dt <chr>, edc_add_rt <dbl>,
## #   spcf_sym_type <chr>, ed_rc_tot_amt <dbl>, edc_sba <dbl>,
## #   edc_insur_brdn_amt <dbl>, std_yyyy <chr>

결과를 살펴보면 총 135,524개의 명세서 중에서 ‘E11’을 주상병으로 갖는 명세서는 2,708개가 선택되어 t20_if 데이터셋이 구성된다. 조건을 조금 더 확장하여 주상병이 제2형 당뇨(‘E11’)이면서 동시에 내과 진료과목이 기재된 명세서만 추출하여 t20_if2 데이터셋을 구성해보자. 이때 진료과목코드(mcare_subj_cd)의 값이 ‘01’인 경우 내과를 의미하며 이를 위한 프로그램은 다음과 같다.

방법1

condition <- substr(t20$sick_sym1,1,3)=='E11' & t20$mcare_subj_cd=='01'

t20_if2 <- t20[condition,]

t20_if2

## # A tibble: 2,174 x 22
##    rn_indi rn_key        rn_inst mdcare_strt_dt form_cd mcare_subj_cd sick_sym1
##      <dbl> <chr>           <dbl> <chr>          <chr>   <chr>         <chr>    
##  1  819628 2002100385297   99662 20021025       03      01            E11      
##  2  663811 2002090160999  108535 20020929       03      01            E11      
##  3  819628 2002090153862   99662 20020907       03      01            E11      
##  4  490204 2002040486087   36298 20020416       03      01            E11      
##  5  490204 2002020191323   36298 20020214       03      01            E11      
##  6  490204 2002030200247   36298 20020316       03      01            E11      
##  7  490204 2002050098890   36298 20020514       03      01            E11      
##  8  490204 2002070043518   36298 20020715       03      01            E11      
##  9  490204 2002100739596   36298 20021030       03      01            E11      
## 10  490204 2002080663820   36298 20020831       03      01            E11      
## # ... with 2,164 more rows, and 15 more variables: sick_sym2 <chr>,
## #   hsptz_path_type <chr>, ofij_type <chr>, oprtn_yn <chr>,
## #   mdcare_dd_cnt <dbl>, vshsp_dd_cnt <dbl>, tot_prsc_dd_cnt <dbl>,
## #   mcare_rslt_type <chr>, fst_hsptz_dt <chr>, edc_add_rt <dbl>,
## #   spcf_sym_type <chr>, ed_rc_tot_amt <dbl>, edc_sba <dbl>,
## #   edc_insur_brdn_amt <dbl>, std_yyyy <chr>

방법2

condition <- substr(t20$sick_sym1,1,3)=='E11' & t20$mcare_subj_cd=='01'
t20_if2 <- subset(t20,condition)

t20_if2

## # A tibble: 2,174 x 22
##    rn_indi rn_key        rn_inst mdcare_strt_dt form_cd mcare_subj_cd sick_sym1
##      <dbl> <chr>           <dbl> <chr>          <chr>   <chr>         <chr>    
##  1  819628 2002100385297   99662 20021025       03      01            E11      
##  2  663811 2002090160999  108535 20020929       03      01            E11      
##  3  819628 2002090153862   99662 20020907       03      01            E11      
##  4  490204 2002040486087   36298 20020416       03      01            E11      
##  5  490204 2002020191323   36298 20020214       03      01            E11      
##  6  490204 2002030200247   36298 20020316       03      01            E11      
##  7  490204 2002050098890   36298 20020514       03      01            E11      
##  8  490204 2002070043518   36298 20020715       03      01            E11      
##  9  490204 2002100739596   36298 20021030       03      01            E11      
## 10  490204 2002080663820   36298 20020831       03      01            E11      
## # ... with 2,164 more rows, and 15 more variables: sick_sym2 <chr>,
## #   hsptz_path_type <chr>, ofij_type <chr>, oprtn_yn <chr>,
## #   mdcare_dd_cnt <dbl>, vshsp_dd_cnt <dbl>, tot_prsc_dd_cnt <dbl>,
## #   mcare_rslt_type <chr>, fst_hsptz_dt <chr>, edc_add_rt <dbl>,
## #   spcf_sym_type <chr>, ed_rc_tot_amt <dbl>, edc_sba <dbl>,
## #   edc_insur_brdn_amt <dbl>, std_yyyy <chr>

방법3

t20_if2 <- t20 %>% 
  mutate(condition = substr(sick_sym1,1,3)=='E11' & mcare_subj_cd=='01') %>% 
  filter(condition)

t20_if2

## # A tibble: 2,174 x 23
##    rn_indi rn_key        rn_inst mdcare_strt_dt form_cd mcare_subj_cd sick_sym1
##      <dbl> <chr>           <dbl> <chr>          <chr>   <chr>         <chr>    
##  1  819628 2002100385297   99662 20021025       03      01            E11      
##  2  663811 2002090160999  108535 20020929       03      01            E11      
##  3  819628 2002090153862   99662 20020907       03      01            E11      
##  4  490204 2002040486087   36298 20020416       03      01            E11      
##  5  490204 2002020191323   36298 20020214       03      01            E11      
##  6  490204 2002030200247   36298 20020316       03      01            E11      
##  7  490204 2002050098890   36298 20020514       03      01            E11      
##  8  490204 2002070043518   36298 20020715       03      01            E11      
##  9  490204 2002100739596   36298 20021030       03      01            E11      
## 10  490204 2002080663820   36298 20020831       03      01            E11      
## # ... with 2,164 more rows, and 16 more variables: sick_sym2 <chr>,
## #   hsptz_path_type <chr>, ofij_type <chr>, oprtn_yn <chr>,
## #   mdcare_dd_cnt <dbl>, vshsp_dd_cnt <dbl>, tot_prsc_dd_cnt <dbl>,
## #   mcare_rslt_type <chr>, fst_hsptz_dt <chr>, edc_add_rt <dbl>,
## #   spcf_sym_type <chr>, ed_rc_tot_amt <dbl>, edc_sba <dbl>,
## #   edc_insur_brdn_amt <dbl>, std_yyyy <chr>, condition <lgl>
…
특정 조건을 만족하는 개체를 삭제하는 방법은 조건 결과에 부정연산자 !을 붙이거나 조건의 결과가 위치(location)을 나타내는 값이라면 ’-’를 붙여 삭제한다.

1. 새로운 데이터 셋 = 기존 데이터 셋[!조건,]
2. 새로운 데이터 셋 = subset(기존 데이터셋, !조건)
3. 새로운 데이터 셋 = filter(기존 데이터셋, !조건)

t40 데이터셋에서 상병분류구분코드(sick_clsf_type)를 이용하여 주상병(‘1’)만 남기고 부상병(‘2’) 및 배제된 상병(‘3’) 그리고 결측값을 가진 개체를 제거한 다음 t40_delete 데이터셋에 저장해보자.

방법1

t40_delete <- t40[!t40$sick_clsf_type %in% c('2', '3', NA),]

t40_delete

## # A tibble: 101,561 x 8
##    rn_indi rn_key        mdcare_strt_dt form_cd mcex_sick_sym detail_tmsg_subj_~
##      <dbl> <chr>         <chr>          <chr>   <chr>         <chr>             
##  1  519172 2005120611781 20051219       03      J418          <NA>              
##  2  519172 2005121419493 20051220       03      J418          <NA>              
##  3  657227 2005090402664 20050921       02      G_            <NA>              
##  4  138307 2005080033134 20050803       03      M159          09                
##  5   41309 2006100747809 20061030       03      H810          <NA>              
##  6  519172 2006101379218 20061016       03      B353          <NA>              
##  7   41309 2006090368522 20060918       03      H810          <NA>              
##  8  519172 2006070065999 20060715       03      J039          <NA>              
##  9  519172 2006070775639 20060722       03      J039          <NA>              
## 10  134307 2006051439329 20060520       03      J040          <NA>              
## # ... with 101,551 more rows, and 2 more variables: sick_clsf_type <chr>,
## #   std_yyyy <chr>

방법2

t40_delete <- subset(t40, !sick_clsf_type %in% c('2', '3', NA))

t40_delete

## # A tibble: 101,561 x 8
##    rn_indi rn_key        mdcare_strt_dt form_cd mcex_sick_sym detail_tmsg_subj_~
##      <dbl> <chr>         <chr>          <chr>   <chr>         <chr>             
##  1  519172 2005120611781 20051219       03      J418          <NA>              
##  2  519172 2005121419493 20051220       03      J418          <NA>              
##  3  657227 2005090402664 20050921       02      G_            <NA>              
##  4  138307 2005080033134 20050803       03      M159          09                
##  5   41309 2006100747809 20061030       03      H810          <NA>              
##  6  519172 2006101379218 20061016       03      B353          <NA>              
##  7   41309 2006090368522 20060918       03      H810          <NA>              
##  8  519172 2006070065999 20060715       03      J039          <NA>              
##  9  519172 2006070775639 20060722       03      J039          <NA>              
## 10  134307 2006051439329 20060520       03      J040          <NA>              
## # ... with 101,551 more rows, and 2 more variables: sick_clsf_type <chr>,
## #   std_yyyy <chr>

방법3

t40_delete <- t40 %>% filter(!t40$sick_clsf_type %in% c('2', '3', NA))

t40_delete

## # A tibble: 101,561 x 8
##    rn_indi rn_key        mdcare_strt_dt form_cd mcex_sick_sym detail_tmsg_subj_~
##      <dbl> <chr>         <chr>          <chr>   <chr>         <chr>             
##  1  519172 2005120611781 20051219       03      J418          <NA>              
##  2  519172 2005121419493 20051220       03      J418          <NA>              
##  3  657227 2005090402664 20050921       02      G_            <NA>              
##  4  138307 2005080033134 20050803       03      M159          09                
##  5   41309 2006100747809 20061030       03      H810          <NA>              
##  6  519172 2006101379218 20061016       03      B353          <NA>              
##  7   41309 2006090368522 20060918       03      H810          <NA>              
##  8  519172 2006070065999 20060715       03      J039          <NA>              
##  9  519172 2006070775639 20060722       03      J039          <NA>              
## 10  134307 2006051439329 20060520       03      J040          <NA>              
## # ... with 101,551 more rows, and 2 more variables: sick_clsf_type <chr>,
## #   std_yyyy <chr>
…
ifelse문은 조건이 참(TRUE)일때 실행문1을 시행하며 거짓(FALSE)일때 실행문2를 시행한다.

다음과 같은 프로그램을 살펴보자.

t30_if <- t30

t30_if$date <- ymd(t30$mdcare_strt_dt)
t30_if <- subset(t30_if,mdy(05252015) <= date &  date <= mdy(05302015) & mcexp_type_cd %in% c('1', '3'))

t30_if$drugcost <- ifelse(t30_if$mcexp_type_cd=='3', t30_if$uprc*t30_if$dd1_mqty_freq*t30_if$tot_mcnt, 0 )

t30_if[c("rn_indi","date","mcexp_type_cd","uprc","dd1_mqty_freq","tot_mcnt","drugcost")]

## # A tibble: 569 x 7
##    rn_indi date       mcexp_type_cd  uprc dd1_mqty_freq tot_mcnt drugcost
##      <dbl> <date>     <chr>         <dbl>         <dbl>    <dbl>    <dbl>
##  1  952290 2015-05-26 1             14000             1        1        0
##  2  196293 2015-05-26 1             14000             1        1        0
##  3  517489 2015-05-28 1             17470             1        1        0
##  4  124047 2015-05-26 1             10000             1        1        0
##  5  196293 2015-05-28 1             10000             1        1        0
##  6  196293 2015-05-30 1             10000             1        1        0
##  7  299704 2015-05-30 1             10000             1        1        0
##  8  880522 2015-05-30 1             10000             1        1        0
##  9  196293 2015-05-26 1               170             1        1        0
## 10  916515 2015-05-26 1               170             1        1        0
## # ... with 559 more rows

위의 프로그램은 t30 데이터셋으로부터 요양개시일자(mdcare_strt_dt)를 날짜 변수 date로 만들고 요양개시일자가 2015년 5월 25일부터 2015년 5월 30일까지이면서 동시에 진료비구분코드(mcexp_type_cd)가 기본진료료(’1‘) 또는 약품비(’3‘)인 개체만 남겨서 t30_if 데이터셋을 구성한다. 이때 진료비구분코드(mcexp_type_cd)가 약품비(’3’)라면, drugcost 변수를 생성하라는 조건문이 사용되었으며 drugcost는 단가(uprc)1일투여량 또는 횟수(dd1_mqty_freq)총투여일수 또는 실시횟수(tot_mcnt) 형태로 산출된다. drugcost는 조건이 진료비구분코드(mcexp_type_cd)가 약품비(’3’) 일 때만 산출되므로 약품비(‘3’)가 아닌 다른 진료비구분코드가 있다면(여기서는 기본진료료(‘1’)) 0으로 대체하라는 명령문이다.

이는 다음과 같이 시행가능하다.

t30_if <- t30 %>% 
  mutate(date=ymd(t30$mdcare_strt_dt)) %>% 
  filter(mdy(05252015) <= date &  date <= mdy(05302015) & mcexp_type_cd %in% c('1', '3')) %>% 
  mutate(drugcost=ifelse(mcexp_type_cd=='3',uprc*dd1_mqty_freq*tot_mcnt,0)) %>% 
  select(rn_indi, date, mcexp_type_cd,uprc,dd1_mqty_freq,tot_mcnt,drugcost)

t30_if

## # A tibble: 569 x 7
##    rn_indi date       mcexp_type_cd  uprc dd1_mqty_freq tot_mcnt drugcost
##      <dbl> <date>     <chr>         <dbl>         <dbl>    <dbl>    <dbl>
##  1  952290 2015-05-26 1             14000             1        1        0
##  2  196293 2015-05-26 1             14000             1        1        0
##  3  517489 2015-05-28 1             17470             1        1        0
##  4  124047 2015-05-26 1             10000             1        1        0
##  5  196293 2015-05-28 1             10000             1        1        0
##  6  196293 2015-05-30 1             10000             1        1        0
##  7  299704 2015-05-30 1             10000             1        1        0
##  8  880522 2015-05-30 1             10000             1        1        0
##  9  196293 2015-05-26 1               170             1        1        0
## 10  916515 2015-05-26 1               170             1        1        0
## # ... with 559 more rows
…
71 <= age <= 80
3

age >80
4

여기서 나이가 60세 이하인 사람들은 agegroup 값이 1로 할당된다. 이때 age 값이 결측이라면(특히 수치형 변수에서 결측값은 가장 작은 값으로 판단하기 때문에), 60세 이하에는 결측값도 포함되므로 결측값 처리는 따로 해주는 것이 좋다. agegroup 변수 생성을 위한 프로그램은 다음과 같다

death_age <- death %>% 
  mutate(birthyear=as.numeric(substr(bth_yyyy,1,4)), age=2022-birthyear,
         agegroup=case_when(age <= 60 ~ 1, age <= 70 ~ 2, age <= 80 ~ 3, TRUE ~ 4))

death_age

## # A tibble: 1,000 x 8
##    rn_indi bth_yyyy dth_yyyymm cod1  cod2  birthyear   age agegroup
##      <dbl> <chr>    <chr>      <chr> <chr>     <dbl> <dbl>    <dbl>
##  1  888234 1959     <NA>       <NA>  <NA>       1959    63        2
##  2  572549 1971     <NA>       <NA>  <NA>       1971    51        1
##  3  720544 1960     <NA>       <NA>  <NA>       1960    62        2
##  4  964637 1960     <NA>       <NA>  <NA>       1960    62        2
##  5  915731 1970     <NA>       <NA>  <NA>       1970    52        1
##  6   84322 1962     <NA>       <NA>  <NA>       1962    60        1
##  7  859599 1960     <NA>       <NA>  <NA>       1960    62        2
##  8  262452 1968     <NA>       <NA>  <NA>       1968    54        1
##  9   69398 1959     <NA>       <NA>  <NA>       1959    63        2
## 10  535689 1965     <NA>       <NA>  <NA>       1965    57        1
## # ... with 990 more rows
…
ed_rc_tot_amt > 20000
high

costlevel 변수를 생성하여 t20_costlevel 데이터셋을 생성하는 프로그램은 다음과 같다.

t20_costlevel <- t20 %>% 
  mutate(costlevel=case_when(
    ed_rc_tot_amt <= 10000 ~ "low",
    ed_rc_tot_amt <= 20000 ~ "medium",
    TRUE ~ "high")) %>% 
  select(rn_indi, ed_rc_tot_amt, costlevel)

t20_costlevel

## # A tibble: 135,524 x 3
##    rn_indi ed_rc_tot_amt costlevel
##      <dbl>         <dbl> <chr>    
##  1  746491         10590 medium   
##  2  848340         10590 medium   
##  3  992522         10590 medium   
##  4  543044         10590 medium   
##  5  928716         10590 medium   
##  6  633585         10590 medium   
##  7  706339         10590 medium   
##  8  515572         10590 medium   
##  9   71582         10590 medium   
## 10  701404         10590 medium   
## # ... with 135,514 more rows
…
