Chapter 7 자료의 정렬 | Insurance Claims Data Analysis with R
…
정렬된 데이터 <- 데이터[order(기준 변수1, 기준 변수2, decreasing=c(F,T),] 또는
정렬된 데이터 <- 데이터 %>% arrange(기준 변수1, desc(기준 변수2))

여러 변수를 기준으로 데이터 정렬시 정렬 순서는 기준 변수1을 기준으로 먼저 데이터를 정렬한다. 그 후 같은 값을 가지는 개체가 여러 개 있다면 그 안에서 기준 변수2를 기준으로 정렬하며, 같은 값을 가지는 개체가 있다면 기준 변수 3을 기준으로 다시 세부적으로 정렬한다.

t20 데이터셋에서 개인고유번호(rn_indi)로 자료를 오름차순으로 정렬하고, 같은 값이 존재하는 경우 심결요양급여비용총액(ed_rc_tot_amt) 변수를 기준으로 오름차순으로 정렬시켜 t20_sort2 데이터셋에 저장해보자. 이를 위한 프로그램은 다음과 같다.

방법1

t20_sort2 <- t20[order(t20$rn_indi, t20$ed_rc_tot_amt),]

t20_sort2[c("rn_indi", "rn_key", "ed_rc_tot_amt")]

## # A tibble: 135,524 x 3
##    rn_indi rn_key        ed_rc_tot_amt
##      <dbl> <chr>                 <dbl>
##  1    2270 2010121938948          5500
##  2    2270 2008100202820          8350
##  3    2270 2008071707989          8350
##  4    2270 2011100457256          8960
##  5    2270 2011102360413          8960
##  6    2270 2012011367537          9210
##  7    2270 2011011478910          9550
##  8    2270 2014070346579          9710
##  9    2270 2014080657995          9710
## 10    2270 2002120623656         10110
## # ... with 135,514 more rows

방법2

t20_sort <- t20 %>% arrange(rn_indi, ed_rc_tot_amt) %>% 
   select(rn_indi, rn_key, ed_rc_tot_amt)

t20_sort

## # A tibble: 135,524 x 3
##    rn_indi rn_key        ed_rc_tot_amt
##      <dbl> <chr>                 <dbl>
##  1    2270 2010121938948          5500
##  2    2270 2008100202820          8350
##  3    2270 2008071707989          8350
##  4    2270 2011100457256          8960
##  5    2270 2011102360413          8960
##  6    2270 2012011367537          9210
##  7    2270 2011011478910          9550
##  8    2270 2014070346579          9710
##  9    2270 2014080657995          9710
## 10    2270 2002120623656         10110
## # ... with 135,514 more rows

정렬된 양상을 보면 rn_indi 변수에 의해 오름차순으로 정렬되고, rn_indi가 같은 값을 가질 경우 ed_rc_tot_amt 변수를 기준으로 오름차순으로 정렬된 것을 볼 수 있다. t20 데이터셋에서 개인고유번호(rn_indi)로 자료를 오름차순으로 정렬하고, 같은 값이 존재하는 경우 심결요양급여비용총액(ed_rc_tot_amt) 변수를 기준으로 내림차순으로 정렬시켜 t20_sort3 데이터셋에 저장해보자. 이를 위한 프로그램은 다음과 같다.

t20_sort2 <- t20[order(t20$rn_indi, t20$ed_rc_tot_amt, decreasing=c(F,T)),]

t20_sort2[c("rn_indi", "rn_key", "ed_rc_tot_amt")]

## # A tibble: 135,524 x 3
##    rn_indi rn_key        ed_rc_tot_amt
##      <dbl> <chr>                 <dbl>
##  1    2270 2011101879260        339070
##  2    2270 2011101403212        171160
##  3    2270 2008100586013        143270
##  4    2270 2002040223448        122130
##  5    2270 2011011106829         81500
##  6    2270 2004111054541         76370
##  7    2270 2011100414335         58770
##  8    2270 2011050057984         53160
##  9    2270 2014010835401         39880
## 10    2270 2007011561769         34320
## # ... with 135,514 more rows

방법2

t20_sort <- t20 %>% arrange(rn_indi, desc(ed_rc_tot_amt)) %>% 
   select(rn_indi, rn_key, ed_rc_tot_amt)

t20_sort

## # A tibble: 135,524 x 3
##    rn_indi rn_key        ed_rc_tot_amt
##      <dbl> <chr>                 <dbl>
##  1    2270 2011101879260        339070
##  2    2270 2011101403212        171160
##  3    2270 2008100586013        143270
##  4    2270 2002040223448        122130
##  5    2270 2011011106829         81500
##  6    2270 2004111054541         76370
##  7    2270 2011100414335         58770
##  8    2270 2011050057984         53160
##  9    2270 2014010835401         39880
## 10    2270 2007011561769         34320
## # ... with 135,514 more rows
…
동일한 개체가 중복되어 나타나는 경우 distinct() 함수를 이용하여 중복 개체를 제거할 수 있다.

새로운 데이터 <- 데이터 %>% distinct()

예제를 위해, t40 데이터셋으로부터 요양개시일자(mdcare_strt_dt)를 이용해 날짜변수(date1)를 생성하고, 요양급여상병기호(mcex_sick_sym)를 첫 두 자리만 추출하여 sick 변수를 생성한 다음 t40_nodup 데이터셋을 생성해보자. 이때 rn_key, date1, sick 변수만 남기자.

t40_nodup <- t40 %>% 
  mutate(date1=ymd(mdcare_strt_dt), sick=substr(mcex_sick_sym,1,2)) %>% 
  select(rn_key, date1, sick) %>% 
  arrange(rn_key, date1)

t40_nodup

## # A tibble: 340,596 x 3
##    rn_key        date1      sick 
##    <chr>         <date>     <chr>
##  1 2002010004184 2002-01-14 J0   
##  2 2002010007672 2002-01-03 J2   
##  3 2002010007672 2002-01-03 J0   
##  4 2002010007672 2002-01-03 J3   
##  5 2002010008782 2002-01-14 J2   
##  6 2002010008782 2002-01-14 J0   
##  7 2002010009358 2002-01-23 M5   
##  8 2002010010476 2002-01-04 M6   
##  9 2002010010476 2002-01-04 M6   
## 10 2002010011241 2002-01-07 K2   
## # ... with 340,586 more rows

t40_nodup 데이터셋에서 청구고유번호(rn_key), date1, sick 변수만 남겨서 rn_key, date1에 대해 정렬하면 위와 같은 결과를 얻을 수 있다. 청구고유번호가 ‘2002010010476’ 의 경우 date1은 ‘2002-01-04,’ sick는 ‘m6’로 모든 값이 같음을 알 수 있다. 따라서 중복된 개체를 제거해보자. 이를 위한 프로그램은 다음과 같다.

t40_nodup2 <- t40_nodup %>% distinct()

t40_nodup2

## # A tibble: 306,766 x 3
##    rn_key        date1      sick 
##    <chr>         <date>     <chr>
##  1 2002010004184 2002-01-14 J0   
##  2 2002010007672 2002-01-03 J2   
##  3 2002010007672 2002-01-03 J0   
##  4 2002010007672 2002-01-03 J3   
##  5 2002010008782 2002-01-14 J2   
##  6 2002010008782 2002-01-14 J0   
##  7 2002010009358 2002-01-23 M5   
##  8 2002010010476 2002-01-04 M6   
##  9 2002010011241 2002-01-07 K2   
## 10 2002010012574 2002-01-04 J3   
## # ... with 306,756 more rows

결과를 살펴보면 청구고유번호 ‘2002010010476’은 두 개 중에 하나만 남아있다는 것을 알 수 있다. 중복된 개체를 제거할 때는 데이터셋의 순서상 첫 번째 개체를 남겨두고 나머지 중복된 개체들을 삭제한다.

만약 각 개체가 가지는 모든 변수의 값이 같은 경우가 아니라, 정렬에 사용된 기준 변수의 값이 같은 경우 중복된 개체를 제거하고 싶다면 distinct() 함수의 옵션으로 기준 변수를 넣어주기만 하면 되며, 사용방법은 다음과 같다.

새로운 데이터 <- 데이터 %>% 
    distinct(기준 변수1, 기준 변수2, ... , .keep_all=T)

예를 들어 위의 예제에 사용된 t40_nodup의 경우 date1을 기준으로 정렬시키면 다음과 같다.

t40_nodup <- t40_nodup %>% arrange(date1)

t40_nodup

## # A tibble: 340,596 x 3
##    rn_key        date1      sick 
##    <chr>         <date>     <chr>
##  1 2002010118624 2002-01-01 J2   
##  2 2002010118624 2002-01-01 K2   
##  3 2002010118624 2002-01-01 K1   
##  4 2002010021138 2002-01-02 J3   
##  5 2002010021138 2002-01-02 J3   
##  6 2002010021138 2002-01-02 H6   
##  7 2002010138330 2002-01-02 J0   
##  8 2002010138330 2002-01-02 A0   
##  9 2002010210869 2002-01-02 S6   
## 10 2002010210869 2002-01-02 S8   
## # ... with 340,586 more rows

결과를 살펴보면, date1의 값을 기준으로 ‘2002-01-01’이 3개, ‘2002-01-02’가 다수의 개체로 이루어져 있다. 이때 date1을 기준으로 중복제거를 하면 ‘2002-01-01,’ ‘2002-01-02’ 등이 각각 1개씩의 개체만 남기고 나머지는 삭제가 될 것이다. date1을 기준으로 중복제거를 하면 결과는 다음과 같다.

t40_nodup_ex <- t40_nodup %>% 
  distinct(date1)

t40_nodup_ex

## # A tibble: 5,031 x 1
##    date1     
##    <date>    
##  1 2002-01-01
##  2 2002-01-02
##  3 2002-01-03
##  4 2002-01-04
##  5 2002-01-05
##  6 2002-01-07
##  7 2002-01-08
##  8 2002-01-09
##  9 2002-01-10
## 10 2002-01-11
## # ... with 5,021 more rows

t40_nodup_ex2 <- t40_nodup %>% 
  distinct(date1, .keep_all=T)

t40_nodup_ex2

## # A tibble: 5,031 x 3
##    rn_key        date1      sick 
##    <chr>         <date>     <chr>
##  1 2002010118624 2002-01-01 J2   
##  2 2002010021138 2002-01-02 J3   
##  3 2002010007672 2002-01-03 J2   
##  4 2002010010476 2002-01-04 M6   
##  5 2002010128699 2002-01-05 M7   
##  6 2002010011241 2002-01-07 K2   
##  7 2002010016588 2002-01-08 N_   
##  8 2002010092839 2002-01-09 J0   
##  9 2002010030285 2002-01-10 J0   
## 10 2002010133767 2002-01-11 J2   
## # ... with 5,021 more rows
…
