Chapter 8 반복문 | Insurance Claims Data Analysis with R
…
if (t20_temp[i,"std_yyyy"]=='2003') {
  t20_temp$totalcost[i] <- t20_temp$ed_rc_tot_amt[i] + 2000
if (t20_temp[i,"edc_sba"]>3000) {
  t20_temp$edc_sba2[i] <- 2000
}
  }  

}

t20_temp

## # A tibble: 15,074 x 7
##    rn_indi std_yyyy rn_key        ed_rc_tot_amt edc_sba edc_sba2 totalcost
##      <dbl> <chr>    <chr>                 <dbl>   <dbl>    <dbl>     <dbl>
##  1  746491 2002     2002100382947         10590    3000       NA     11590
##  2  848340 2002     2002070609412         10590    3000       NA     11590
##  3  992522 2002     2002091020009         10590    3000       NA     11590
##  4  543044 2002     2002090218816         10590    3000       NA     11590
##  5  928716 2002     2002080203933         10590    3000       NA     11590
##  6  633585 2002     2002050156181         10590    3000       NA     11590
##  7  706339 2002     2002040696294         10590    3000       NA     11590
##  8  515572 2002     2002070735314         10590    3000       NA     11590
##  9   71582 2002     2002070205573         10590    3000       NA     11590
## 10  701404 2002     2002070165758         10590    3000       NA     11590
## # ... with 15,064 more rows
…
여기서 반복 순서는 첫 번째 반복인 i가 1일때 j가 1부터 K까지 반복이 일어나며, 이러한 반복은 i의 값이 N에 이를 때까지 계속된다.

t20_double <- t20 %>% mutate(year=as.numeric(substr(mdcare_strt_dt,1,4)),
                             month=as.numeric(substr(mdcare_strt_dt,5,6))) %>% select(rn_indi, year, month)

t20_double$yymm <- NA
for (i in 2002:2015) {
  for (j in 1:12) {
   t20_double$yymm[t20_double$year==i & t20_double$month==j] <- paste(i,j,sep="-")
  }
}

t20_double

## # A tibble: 135,524 x 4
##    rn_indi  year month yymm   
##      <dbl> <dbl> <dbl> <chr>  
##  1  746491  2002    10 2002-10
##  2  848340  2002     7 2002-7 
##  3  992522  2002     9 2002-9 
##  4  543044  2002     9 2002-9 
##  5  928716  2002     8 2002-8 
##  6  633585  2002     5 2002-5 
##  7  706339  2002     4 2002-4 
##  8  515572  2002     7 2002-7 
##  9   71582  2002     7 2002-7 
## 10  701404  2002     7 2002-7 
## # ... with 135,514 more rows
…
