Chapter 2 Tidyverse Package | Insurance Claims Data Analysis with R
…
2.1.1 filter() - 연속형 변수 처리

연속형 변수는 비교연산자를 이용하여 조건을 지정한다. 아래의 예제는 mpg 데이터에서 cty변수가 17보다 큰 행을 모두 추출하라는 명령어이다.

filter(mpg, cty>17)

## # A tibble: 102 x 11
##    manufacturer model    displ  year   cyl trans   drv     cty   hwy fl    class
##    <chr>        <chr>    <dbl> <int> <int> <chr>   <chr> <int> <int> <chr> <chr>
##  1 audi         a4         1.8  1999     4 auto(l~ f        18    29 p     comp~
##  2 audi         a4         1.8  1999     4 manual~ f        21    29 p     comp~
##  3 audi         a4         2    2008     4 manual~ f        20    31 p     comp~
##  4 audi         a4         2    2008     4 auto(a~ f        21    30 p     comp~
##  5 audi         a4         2.8  1999     6 manual~ f        18    26 p     comp~
##  6 audi         a4         3.1  2008     6 auto(a~ f        18    27 p     comp~
##  7 audi         a4 quat~   1.8  1999     4 manual~ 4        18    26 p     comp~
##  8 audi         a4 quat~   2    2008     4 manual~ 4        20    28 p     comp~
##  9 audi         a4 quat~   2    2008     4 auto(s~ 4        19    27 p     comp~
## 10 chevrolet    malibu     2.4  1999     4 auto(l~ f        19    27 r     mids~
## # ... with 92 more rows

2.1.2 filter() - 이산형 변수 처리

filter(mpg, cyl == 4)

## # A tibble: 81 x 11
##    manufacturer model    displ  year   cyl trans   drv     cty   hwy fl    class
##    <chr>        <chr>    <dbl> <int> <int> <chr>   <chr> <int> <int> <chr> <chr>
##  1 audi         a4         1.8  1999     4 auto(l~ f        18    29 p     comp~
##  2 audi         a4         1.8  1999     4 manual~ f        21    29 p     comp~
##  3 audi         a4         2    2008     4 manual~ f        20    31 p     comp~
##  4 audi         a4         2    2008     4 auto(a~ f        21    30 p     comp~
##  5 audi         a4 quat~   1.8  1999     4 manual~ 4        18    26 p     comp~
##  6 audi         a4 quat~   1.8  1999     4 auto(l~ 4        16    25 p     comp~
##  7 audi         a4 quat~   2    2008     4 manual~ 4        20    28 p     comp~
##  8 audi         a4 quat~   2    2008     4 auto(s~ 4        19    27 p     comp~
##  9 chevrolet    malibu     2.4  1999     4 auto(l~ f        19    27 r     mids~
## 10 chevrolet    malibu     2.4  2008     4 auto(l~ f        22    30 r     mids~
## # ... with 71 more rows

명령어 %in%는 여러개의 값을 or(또는) 형태로 동시에 검색할 때 유용하다.

filter(mpg, cyl %in% c(4,6))

## # A tibble: 160 x 11
##    manufacturer model    displ  year   cyl trans   drv     cty   hwy fl    class
##    <chr>        <chr>    <dbl> <int> <int> <chr>   <chr> <int> <int> <chr> <chr>
##  1 audi         a4         1.8  1999     4 auto(l~ f        18    29 p     comp~
##  2 audi         a4         1.8  1999     4 manual~ f        21    29 p     comp~
##  3 audi         a4         2    2008     4 manual~ f        20    31 p     comp~
##  4 audi         a4         2    2008     4 auto(a~ f        21    30 p     comp~
##  5 audi         a4         2.8  1999     6 auto(l~ f        16    26 p     comp~
##  6 audi         a4         2.8  1999     6 manual~ f        18    26 p     comp~
##  7 audi         a4         3.1  2008     6 auto(a~ f        18    27 p     comp~
##  8 audi         a4 quat~   1.8  1999     4 manual~ 4        18    26 p     comp~
##  9 audi         a4 quat~   1.8  1999     4 auto(l~ 4        16    25 p     comp~
## 10 audi         a4 quat~   2    2008     4 manual~ 4        20    28 p     comp~
## # ... with 150 more rows

2.1.3 filter() - 문자형 변수 처리

filter(mpg, class == "suv")

## # A tibble: 62 x 11
##    manufacturer model      displ  year   cyl trans drv     cty   hwy fl    class
##    <chr>        <chr>      <dbl> <int> <int> <chr> <chr> <int> <int> <chr> <chr>
##  1 chevrolet    c1500 sub~   5.3  2008     8 auto~ r        14    20 r     suv  
##  2 chevrolet    c1500 sub~   5.3  2008     8 auto~ r        11    15 e     suv  
##  3 chevrolet    c1500 sub~   5.3  2008     8 auto~ r        14    20 r     suv  
##  4 chevrolet    c1500 sub~   5.7  1999     8 auto~ r        13    17 r     suv  
##  5 chevrolet    c1500 sub~   6    2008     8 auto~ r        12    17 r     suv  
##  6 chevrolet    k1500 tah~   5.3  2008     8 auto~ 4        14    19 r     suv  
##  7 chevrolet    k1500 tah~   5.3  2008     8 auto~ 4        11    14 e     suv  
##  8 chevrolet    k1500 tah~   5.7  1999     8 auto~ 4        11    15 r     suv  
##  9 chevrolet    k1500 tah~   6.5  1999     8 auto~ 4        14    17 d     suv  
## 10 dodge        durango 4~   3.9  1999     6 auto~ 4        13    17 r     suv  
## # ... with 52 more rows

2.1.4 filter() - 일반적인 변수 처리

filter(mpg, manufacturer == "hyundai" & hwy < 25)

## # A tibble: 3 x 11
##   manufacturer model  displ  year   cyl trans    drv     cty   hwy fl    class  
##   <chr>        <chr>  <dbl> <int> <int> <chr>    <chr> <int> <int> <chr> <chr>  
## 1 hyundai      tibur~   2.7  2008     6 auto(l4) f        17    24 r     subcom~
## 2 hyundai      tibur~   2.7  2008     6 manual(~ f        16    24 r     subcom~
## 3 hyundai      tibur~   2.7  2008     6 manual(~ f        17    24 r     subcom~

filter(mpg, year > 2000 & class %in% c("subcompact", "suv"))

## # A tibble: 49 x 11
##    manufacturer model      displ  year   cyl trans drv     cty   hwy fl    class
##    <chr>        <chr>      <dbl> <int> <int> <chr> <chr> <int> <int> <chr> <chr>
##  1 chevrolet    c1500 sub~   5.3  2008     8 auto~ r        14    20 r     suv  
##  2 chevrolet    c1500 sub~   5.3  2008     8 auto~ r        11    15 e     suv  
##  3 chevrolet    c1500 sub~   5.3  2008     8 auto~ r        14    20 r     suv  
##  4 chevrolet    c1500 sub~   6    2008     8 auto~ r        12    17 r     suv  
##  5 chevrolet    k1500 tah~   5.3  2008     8 auto~ 4        14    19 r     suv  
##  6 chevrolet    k1500 tah~   5.3  2008     8 auto~ 4        11    14 e     suv  
##  7 dodge        durango 4~   4.7  2008     8 auto~ 4        13    17 r     suv  
##  8 dodge        durango 4~   4.7  2008     8 auto~ 4         9    12 e     suv  
##  9 dodge        durango 4~   4.7  2008     8 auto~ 4        13    17 r     suv  
## 10 dodge        durango 4~   5.7  2008     8 auto~ 4        13    18 r     suv  
## # ... with 39 more rows
…
2.3.1 select() - 선택

select() 함수는 원하는 변수 이름을 지정하면 지정된 변수만 남겨준다. 이때 변수명 사이는 ’,’로 구분한다.

mpg %>% select(model, year, class)

## # A tibble: 234 x 3
##    model       year class  
##    <chr>      <int> <chr>  
##  1 a4          1999 compact
##  2 a4          1999 compact
##  3 a4          2008 compact
##  4 a4          2008 compact
##  5 a4          1999 compact
##  6 a4          1999 compact
##  7 a4          2008 compact
##  8 a4 quattro  1999 compact
##  9 a4 quattro  1999 compact
## 10 a4 quattro  2008 compact
## # ... with 224 more rows

데이터셋에서 변수명이 연속해서 존재하는 경우에 ’:’를 이용하여 한꺼번에 지정하는 것이 가능하다.

mpg %>% select(manufacturer:cty)

## # A tibble: 234 x 8
##    manufacturer model      displ  year   cyl trans      drv     cty
##    <chr>        <chr>      <dbl> <int> <int> <chr>      <chr> <int>
##  1 audi         a4           1.8  1999     4 auto(l5)   f        18
##  2 audi         a4           1.8  1999     4 manual(m5) f        21
##  3 audi         a4           2    2008     4 manual(m6) f        20
##  4 audi         a4           2    2008     4 auto(av)   f        21
##  5 audi         a4           2.8  1999     6 auto(l5)   f        16
##  6 audi         a4           2.8  1999     6 manual(m5) f        18
##  7 audi         a4           3.1  2008     6 auto(av)   f        18
##  8 audi         a4 quattro   1.8  1999     4 manual(m5) 4        18
##  9 audi         a4 quattro   1.8  1999     4 auto(l5)   4        16
## 10 audi         a4 quattro   2    2008     4 manual(m6) 4        20
## # ... with 224 more rows

2.3.2 select() - 제거

변수를 제거할때에는 ’-’를 붙인다.

mpg %>% select(-hwy, -fl, -class)

## # A tibble: 234 x 8
##    manufacturer model      displ  year   cyl trans      drv     cty
##    <chr>        <chr>      <dbl> <int> <int> <chr>      <chr> <int>
##  1 audi         a4           1.8  1999     4 auto(l5)   f        18
##  2 audi         a4           1.8  1999     4 manual(m5) f        21
##  3 audi         a4           2    2008     4 manual(m6) f        20
##  4 audi         a4           2    2008     4 auto(av)   f        21
##  5 audi         a4           2.8  1999     6 auto(l5)   f        16
##  6 audi         a4           2.8  1999     6 manual(m5) f        18
##  7 audi         a4           3.1  2008     6 auto(av)   f        18
##  8 audi         a4 quattro   1.8  1999     4 manual(m5) 4        18
##  9 audi         a4 quattro   1.8  1999     4 auto(l5)   4        16
## 10 audi         a4 quattro   2    2008     4 manual(m6) 4        20
## # ... with 224 more rows

mpg %>% select(-hwy:-class)

## # A tibble: 234 x 8
##    manufacturer model      displ  year   cyl trans      drv     cty
##    <chr>        <chr>      <dbl> <int> <int> <chr>      <chr> <int>
##  1 audi         a4           1.8  1999     4 auto(l5)   f        18
##  2 audi         a4           1.8  1999     4 manual(m5) f        21
##  3 audi         a4           2    2008     4 manual(m6) f        20
##  4 audi         a4           2    2008     4 auto(av)   f        21
##  5 audi         a4           2.8  1999     6 auto(l5)   f        16
##  6 audi         a4           2.8  1999     6 manual(m5) f        18
##  7 audi         a4           3.1  2008     6 auto(av)   f        18
##  8 audi         a4 quattro   1.8  1999     4 manual(m5) 4        18
##  9 audi         a4 quattro   1.8  1999     4 auto(l5)   4        16
## 10 audi         a4 quattro   2    2008     4 manual(m6) 4        20
## # ... with 224 more rows

2.3.3 filter() 와 select() 혼합

Pipe를 통해 여러 명령어를 동시에 수행하는 것이 가능하다. 아래 예제는 mpg 데이터에 filter()를 걸어서 cty>20인 개체만 남기고, 그 다음에 select() 함수를 적용하여 model, year 그리고 cty:class 변수들만 남기게 된다.

mpg %>% 
  filter(cty >20) %>% 
  select(model, year, cty:class)

## # A tibble: 45 x 6
##    model   year   cty   hwy fl    class     
##    <chr>  <int> <int> <int> <chr> <chr>     
##  1 a4      1999    21    29 p     compact   
##  2 a4      2008    21    30 p     compact   
##  3 malibu  2008    22    30 r     midsize   
##  4 civic   1999    28    33 r     subcompact
##  5 civic   1999    24    32 r     subcompact
##  6 civic   1999    25    32 r     subcompact
##  7 civic   1999    23    29 p     subcompact
##  8 civic   1999    24    32 r     subcompact
##  9 civic   2008    26    34 r     subcompact
## 10 civic   2008    25    36 r     subcompact
## # ... with 35 more rows

2.4 group_by()와 summarise()

R에서 기본적인 연산은 행 단위로 이루어지게 된다. 예를 들어, 변수 a와 변수 b를 더하는 경우를 생각해보자. 이 경우 첫 번째 행의 a값과 b값을 더하고 계속해서 두 번째 행의 a값과 b값을 더하는 식으로 결과를 보여주게된다.

group_by() 함수는 행단위의 연산이 아닌 열 단위의 연산이 가능하게 해준다. 예를 들어 id가 1인 행이 5개가 있다고 했을때 a 변수의 값을 group_by()를 통해 더해주게 되면 id 별로 연산해서 결과를 산출한다. 즉, 기본적으로 하나의 열 내에서 여러개의 행에 해당하는 값을 연산하고자 할 때 사용한다.

group_by() 함수는 단독으로 사용하면 별다른 행동을 취하지 않기 때문에 summarise() 함수와 같이 사용한다.

mpg %>% 
 group_by(model)

## # A tibble: 234 x 11
## # Groups:   model [38]
##    manufacturer model    displ  year   cyl trans   drv     cty   hwy fl    class
##    <chr>        <chr>    <dbl> <int> <int> <chr>   <chr> <int> <int> <chr> <chr>
##  1 audi         a4         1.8  1999     4 auto(l~ f        18    29 p     comp~
##  2 audi         a4         1.8  1999     4 manual~ f        21    29 p     comp~
##  3 audi         a4         2    2008     4 manual~ f        20    31 p     comp~
##  4 audi         a4         2    2008     4 auto(a~ f        21    30 p     comp~
##  5 audi         a4         2.8  1999     6 auto(l~ f        16    26 p     comp~
##  6 audi         a4         2.8  1999     6 manual~ f        18    26 p     comp~
##  7 audi         a4         3.1  2008     6 auto(a~ f        18    27 p     comp~
##  8 audi         a4 quat~   1.8  1999     4 manual~ 4        18    26 p     comp~
##  9 audi         a4 quat~   1.8  1999     4 auto(l~ 4        16    25 p     comp~
## 10 audi         a4 quat~   2    2008     4 manual~ 4        20    28 p     comp~
## # ... with 224 more rows

아래는 group_by()와 summarise()를 이용하여 mpg 데이터에서 model별로 hwy의 평균값을 산출하여 hwy_mean 변수를 생성하는 예제이다.

mpg %>% 
 group_by(model) %>% 
  summarise(hwy_mean = mean(hwy))

## # A tibble: 38 x 2
##    model              hwy_mean
##    <chr>                 <dbl>
##  1 4runner 4wd            18.8
##  2 a4                     28.3
##  3 a4 quattro             25.8
##  4 a6 quattro             24  
##  5 altima                 28.7
##  6 c1500 suburban 2wd     17.8
##  7 camry                  28.3
##  8 camry solara           28.1
##  9 caravan 2wd            22.4
## 10 civic                  32.6
## # ... with 28 more rows

아래는 group_by()와 summarise()를 이용하여 mpg 데이터에서 manufacturer와 class별로 hwy의 평균값과 hwy의 최대값을 산출하여 hwy_mean과 hwy_max 변수를 각각 생성하는 예제이다.

mpg %>% 
    group_by(manufacturer,class) %>% 
    summarise(hwy_mean = mean(hwy), hwy_max=max(hwy))

## `summarise()` has grouped output by 'manufacturer'. You can override using the `.groups` argument.

## # A tibble: 32 x 4
## # Groups:   manufacturer [15]
##    manufacturer class      hwy_mean hwy_max
##    <chr>        <chr>         <dbl>   <int>
##  1 audi         compact        26.9      31
##  2 audi         midsize        24        25
##  3 chevrolet    2seater        24.8      26
##  4 chevrolet    midsize        27.6      30
##  5 chevrolet    suv            17.1      20
##  6 dodge        minivan        22.4      24
##  7 dodge        pickup         16.1      19
##  8 dodge        suv            16        18
##  9 ford         pickup         16.4      17
## 10 ford         subcompact     23.2      26
## # ... with 22 more rows

2.5 arrange()

arrange() 함수는 데이터셋을 정령하고 싶을때 사용하는 함수이다.

아래는 mpg 데이터에서 model별로 hwy의 평균과 합계를 산출하고, 그 결과를 hwy_mean 값에 따라 오름차순으로 정렬하는 예제이다.

mpg %>% 
  group_by(model) %>% 
  summarise(hwy_mean = mean(hwy), hwy_sum = sum(hwy)) %>% 
  arrange(hwy_mean)

## # A tibble: 38 x 3
##    model                  hwy_mean hwy_sum
##    <chr>                     <dbl>   <int>
##  1 ram 1500 pickup 4wd        15.3     153
##  2 durango 4wd                16       112
##  3 k1500 tahoe 4wd            16.2      65
##  4 f150 pickup 4wd            16.4     115
##  5 land cruiser wagon 4wd     16.5      33
##  6 range rover                16.5      66
##  7 dakota pickup 4wd          17       153
##  8 navigator 2wd              17        51
##  9 expedition 2wd             17.3      52
## 10 grand cherokee 4wd         17.6     141
## # ... with 28 more rows

내림차순 정렬은 desc() 함수를 이용한다.

mpg %>% 
  group_by(model) %>% 
  summarise(hwy_mean = mean(hwy), hwy_sum = sum(hwy)) %>% 
  arrange(desc(hwy_mean))

## # A tibble: 38 x 3
##    model        hwy_mean hwy_sum
##    <chr>           <dbl>   <int>
##  1 corolla          34       170
##  2 new beetle       32.8     197
##  3 civic            32.6     293
##  4 jetta            29.1     262
##  5 altima           28.7     172
##  6 a4               28.3     198
##  7 camry            28.3     198
##  8 camry solara     28.1     197
##  9 sonata           27.7     194
## 10 malibu           27.6     138
## # ... with 28 more rows
…
2.7 mutate()

mutate() 함수는 새로운 변수를 생성한다.

아래는 mpg 데이터에 hwy/cty를 연산하여 hwy_per_cty라는 변수를 생성하여 mpg 데이터에 추가한다.

mpg %>% 
  select(model, year, hwy, cty) %>% 
  mutate(hwy_per_cty = hwy / cty)

## # A tibble: 234 x 5
##    model       year   hwy   cty hwy_per_cty
##    <chr>      <int> <int> <int>       <dbl>
##  1 a4          1999    29    18        1.61
##  2 a4          1999    29    21        1.38
##  3 a4          2008    31    20        1.55
##  4 a4          2008    30    21        1.43
##  5 a4          1999    26    16        1.62
##  6 a4          1999    26    18        1.44
##  7 a4          2008    27    18        1.5 
##  8 a4 quattro  1999    26    18        1.44
##  9 a4 quattro  1999    25    16        1.56
## 10 a4 quattro  2008    28    20        1.4 
## # ... with 224 more rows
